SOURCEFILE_MESH          SAHEX_mesh.h5m

! PROTEUS RELATED INPUT DATA

THERMAL_POWER            60000.0 ! Watts

TOLERANCE_EIGENVALUE     1.0e-7      ! The maximum relative error to allow on the eigenvalue
TOLERANCE_FISSION        1.0e-6      ! The maximum relative error to allow on the outer iterations for the flux
TOLERANCE_FLUX           1.0e-6      ! The maximum relative error to allow on the inner iterations for the flux
MAX_ITERATIONS_FISSION   50          ! The maximum number of outer iterations
MAX_ITERATIONS_UPSCATTER 5           ! The maximum number of upscatter iterations
MAX_ITERATIONS_SCATTER   100         ! The maximum number of inner iterations per outer iteration

SOURCEFILE_XS            SAHEX_9g.ISOTXS
SOURCEFILE_MATERIAL      SAHEX_material.assignment

! BOUNDARY CONDITIONS
PROTEUS_BC_ALIAS		     side_set_0000001 VOID        ! Top surface
PROTEUS_BC_ALIAS		     side_set_0000002 VOID        ! Bottom surface
PROTEUS_BC_ALIAS		     side_set_0000003 REFLECTIVE  ! Lateral surfaces

! NEK5000 RELATED INPUT DATA
SODIUM_DENSITY            0.85000             ! g/cc
RHOCP                     1.08110             ! J/cc/K
CONDUCTIVITY              0.70000             ! Na @ 700K (W/cm/K)
AXIAL_VELOCITY            65.3896             ! Vz   in cm/s

TOLERANCE_FLUID_ABS       1.000000E-05
TOLERANCE_FLUID_REL       1.000000E-09
